%YAML 1.1
%TAG !u! tag:unity3d.com,2011:
--- !u!1 &7682296469602100732
GameObject:
  m_ObjectHideFlags: 0
  m_CorrespondingSourceObject: {fileID: 0}
  m_PrefabInstance: {fileID: 0}
  m_PrefabAsset: {fileID: 0}
  serializedVersion: 6
  m_Component:
  - component: {fileID: 7682296469602100731}
  - component: {fileID: 7682296469602100729}
  - component: {fileID: 7682296469602100730}
  m_Layer: 5
  m_Name: LifeText
  m_TagString: Untagged
  m_Icon: {fileID: 0}
  m_NavMeshLayer: 0
  m_StaticEditorFlags: 0
  m_IsActive: 1
--- !u!224 &7682296469602100731
RectTransform:
  m_ObjectHideFlags: 0
  m_CorrespondingSourceObject: {fileID: 0}
  m_PrefabInstance: {fileID: 0}
  m_PrefabAsset: {fileID: 0}
  m_GameObject: {fileID: 7682296469602100732}
  m_LocalRotation: {x: -0, y: -0, z: -0, w: 1}
  m_LocalPosition: {x: 0, y: 0, z: 0}
  m_LocalScale: {x: 1, y: 1, z: 1}
  m_Children:
  - {fileID: 7682296468511594537}
  m_Father: {fileID: 0}
  m_RootOrder: 0
  m_LocalEulerAnglesHint: {x: 0, y: 0, z: 0}
  m_AnchorMin: {x: 0.5, y: 0.5}
  m_AnchorMax: {x: 0.5, y: 0.5}
  m_AnchoredPosition: {x: -44.9, y: 38.1}
  m_SizeDelta: {x: 160, y: 30}
  m_Pivot: {x: 0.5, y: 0.5}
--- !u!222 &7682296469602100729
CanvasRenderer:
  m_ObjectHideFlags: 0
  m_CorrespondingSourceObject: {fileID: 0}
  m_PrefabInstance: {fileID: 0}
  m_PrefabAsset: {fileID: 0}
  m_GameObject: {fileID: 7682296469602100732}
  m_CullTransparentMesh: 1
--- !u!114 &7682296469602100730
MonoBehaviour:
  m_ObjectHideFlags: 0
  m_CorrespondingSourceObject: {fileID: 0}
  m_PrefabInstance: {fileID: 0}
  m_PrefabAsset: {fileID: 0}
  m_GameObject: {fileID: 7682296469602100732}
  m_Enabled: 1
  m_EditorHideFlags: 0
  m_Script: {fileID: 11500000, guid: 5f7201a12d95ffc409449d95f23cf332, type: 3}
  m_Name: 
  m_EditorClassIdentifier: 
  m_Material: {fileID: 0}
  m_Color: {r: 0.19607843, g: 0.19607843, b: 0.19607843, a: 1}
  m_RaycastTarget: 1
  m_RaycastPadding: {x: 0, y: 0, z: 0, w: 0}
  m_Maskable: 1
  m_OnCullStateChanged:
    m_PersistentCalls:
      m_Calls: []
  m_FontData:
    m_Font: {fileID: 10102, guid: 0000000000000000e000000000000000, type: 0}
    m_FontSize: 20
    m_FontStyle: 1
    m_BestFit: 0
    m_MinSize: 0
    m_MaxSize: 300
    m_Alignment: 0
    m_AlignByGeometry: 0
    m_RichText: 1
    m_HorizontalOverflow: 0
    m_VerticalOverflow: 0
    m_LineSpacing: 1
  m_Text: 'Lives: 1 '
--- !u!1001 &4009283736118085097
PrefabInstance:
  m_ObjectHideFlags: 0
  serializedVersion: 2
  m_Modification:
    m_TransformParent: {fileID: 7682296469602100731}
    m_Modifications:
    - target: {fileID: 6719135070982954432, guid: 9d7bda2a9126948409a1d65d7e94a49f,
        type: 3}
      propertyPath: m_Pivot.x
      value: 0.5
      objectReference: {fileID: 0}
    - target: {fileID: 6719135070982954432, guid: 9d7bda2a9126948409a1d65d7e94a49f,
        type: 3}
      propertyPath: m_Pivot.y
      value: 0.5
      objectReference: {fileID: 0}
    - target: {fileID: 6719135070982954432, guid: 9d7bda2a9126948409a1d65d7e94a49f,
        type: 3}
      propertyPath: m_RootOrder
      value: 0
      objectReference: {fileID: 0}
    - target: {fileID: 6719135070982954432, guid: 9d7bda2a9126948409a1d65d7e94a49f,
        type: 3}
      propertyPath: m_AnchorMax.x
      value: 0.5
      objectReference: {fileID: 0}
    - target: {fileID: 6719135070982954432, guid: 9d7bda2a9126948409a1d65d7e94a49f,
        type: 3}
      propertyPath: m_AnchorMax.y
      value: 0.5
      objectReference: {fileID: 0}
    - target: {fileID: 6719135070982954432, guid: 9d7bda2a9126948409a1d65d7e94a49f,
        type: 3}
      propertyPath: m_AnchorMin.x
      value: 0.5
      objectReference: {fileID: 0}
    - target: {fileID: 6719135070982954432, guid: 9d7bda2a9126948409a1d65d7e94a49f,
        type: 3}
      propertyPath: m_AnchorMin.y
      value: 0.5
      objectReference: {fileID: 0}
    - target: {fileID: 6719135070982954432, guid: 9d7bda2a9126948409a1d65d7e94a49f,
        type: 3}
      propertyPath: m_SizeDelta.x
      value: 160
      objectReference: {fileID: 0}
    - target: {fileID: 6719135070982954432, guid: 9d7bda2a9126948409a1d65d7e94a49f,
        type: 3}
      propertyPath: m_SizeDelta.y
      value: 30
      objectReference: {fileID: 0}
    - target: {fileID: 6719135070982954432, guid: 9d7bda2a9126948409a1d65d7e94a49f,
        type: 3}
      propertyPath: m_LocalPosition.x
      value: 0
      objectReference: {fileID: 0}
    - target: {fileID: 6719135070982954432, guid: 9d7bda2a9126948409a1d65d7e94a49f,
        type: 3}
      propertyPath: m_LocalPosition.y
      value: 0
      objectReference: {fileID: 0}
    - target: {fileID: 6719135070982954432, guid: 9d7bda2a9126948409a1d65d7e94a49f,
        type: 3}
      propertyPath: m_LocalPosition.z
      value: 0
      objectReference: {fileID: 0}
    - target: {fileID: 6719135070982954432, guid: 9d7bda2a9126948409a1d65d7e94a49f,
        type: 3}
      propertyPath: m_LocalRotation.w
      value: 1
      objectReference: {fileID: 0}
    - target: {fileID: 6719135070982954432, guid: 9d7bda2a9126948409a1d65d7e94a49f,
        type: 3}
      propertyPath: m_LocalRotation.x
      value: -0
      objectReference: {fileID: 0}
    - target: {fileID: 6719135070982954432, guid: 9d7bda2a9126948409a1d65d7e94a49f,
        type: 3}
      propertyPath: m_LocalRotation.y
      value: -0
      objectReference: {fileID: 0}
    - target: {fileID: 6719135070982954432, guid: 9d7bda2a9126948409a1d65d7e94a49f,
        type: 3}
      propertyPath: m_LocalRotation.z
      value: -0
      objectReference: {fileID: 0}
    - target: {fileID: 6719135070982954432, guid: 9d7bda2a9126948409a1d65d7e94a49f,
        type: 3}
      propertyPath: m_AnchoredPosition.x
      value: 74
      objectReference: {fileID: 0}
    - target: {fileID: 6719135070982954432, guid: 9d7bda2a9126948409a1d65d7e94a49f,
        type: 3}
      propertyPath: m_AnchoredPosition.y
      value: -0.000015258789
      objectReference: {fileID: 0}
    - target: {fileID: 6719135070982954432, guid: 9d7bda2a9126948409a1d65d7e94a49f,
        type: 3}
      propertyPath: m_LocalEulerAnglesHint.x
      value: 0
      objectReference: {fileID: 0}
    - target: {fileID: 6719135070982954432, guid: 9d7bda2a9126948409a1d65d7e94a49f,
        type: 3}
      propertyPath: m_LocalEulerAnglesHint.y
      value: 0
      objectReference: {fileID: 0}
    - target: {fileID: 6719135070982954432, guid: 9d7bda2a9126948409a1d65d7e94a49f,
        type: 3}
      propertyPath: m_LocalEulerAnglesHint.z
      value: 0
      objectReference: {fileID: 0}
    - target: {fileID: 6719135070982954435, guid: 9d7bda2a9126948409a1d65d7e94a49f,
        type: 3}
      propertyPath: m_Name
      value: TimeText
      objectReference: {fileID: 0}
    m_RemovedComponents: []
  m_SourcePrefab: {fileID: 100100000, guid: 9d7bda2a9126948409a1d65d7e94a49f, type: 3}
--- !u!224 &7682296468511594537 stripped
RectTransform:
  m_CorrespondingSourceObject: {fileID: 6719135070982954432, guid: 9d7bda2a9126948409a1d65d7e94a49f,
    type: 3}
  m_PrefabInstance: {fileID: 4009283736118085097}
  m_PrefabAsset: {fileID: 0}
